module time-tracker

go 1.21.5

require (
	github.com/AllenDang/giu v0.7.0
	github.com/google/uuid v1.5.0
)

require (
	github.com/AllenDang/go-findfont v0.0.0-20200702051237-9f180485aeb8 // indirect
	github.com/AllenDang/imgui-go v1.12.1-0.20221124025851-59b862ca5a0c // indirect
	github.com/faiface/mainthread v0.0.0-20171120011319-8b78f0a41ae3 // indirect
	github.com/go-gl/gl v0.0.0-20211210172815-726fda9656d6 // indirect
	github.com/go-gl/glfw/v3.3/glfw v0.0.0-20221017161538-93cebf72946b // indirect
	github.com/mazznoer/csscolorparser v0.1.3 // indirect
	github.com/napsy/go-css v0.0.0-20221107082635-4ed403047a64 // indirect
	github.com/pkg/browser v0.0.0-20210911075715-681adbf594b8 // indirect
	github.com/sahilm/fuzzy v0.1.0 // indirect
	golang.org/x/image v0.12.0 // indirect
	golang.org/x/sys v0.5.0 // indirect
	gopkg.in/eapache/queue.v1 v1.1.0 // indirect
)
